<svg width="197" height="45" viewBox="0 0 197 45" fill="none" xmlns="http://www.w3.org/2000/svg">
    <path fill-rule="evenodd" clip-rule="evenodd" d="M11.3029 33.8909C9.13029 33.4809 7.97231 34.7975 8.53956 36.664C8.91855 37.7184 9.84338 38.7818 10.921 39.5357C10.6174 40.5125 10.6174 40.5125 10.4543 41.1999C10.2982 41.1103 10.1383 41.0248 9.99415 40.9559C9.26212 40.5806 9.01783 40.6413 9.39641 41.055C9.77952 41.4307 10.6174 42.0041 11.3144 42.3653C12.0448 42.7084 12.3983 42.7233 12.0679 42.3732C11.8611 42.1379 11.466 41.8303 10.9915 41.5285C11.1954 40.8646 11.1954 40.8646 11.5455 39.9139C12.0061 40.1579 12.4733 40.3453 12.9655 40.4795C14.3538 40.806 15.4879 40.5335 16.0049 39.7995C17.9217 40.5645 17.9217 40.5645 19.8496 41.2325C19.7334 41.4777 19.6729 41.7324 19.7108 41.9946C19.8764 43.0969 21.7161 43.9003 23.8232 43.9019C25.9102 43.7727 27.7973 42.869 28.1059 41.7642C28.3926 40.3886 26.6093 39.2442 24.0646 39.364C22.3151 39.3763 20.8313 39.984 20.1211 40.8201C18.1688 40.1372 18.1688 40.1372 16.2166 39.3549C16.3138 39.0543 16.3353 38.7079 16.2817 38.3281C16.0065 36.2998 13.7025 34.2253 11.3029 33.8909ZM42.8454 26.7916C42.522 25.6328 42.522 25.6328 42.1133 24.4211C42.5525 23.7089 42.8178 22.721 42.8116 21.6133C42.7238 19.6218 41.7039 17.8775 40.4239 17.674C38.9244 17.4787 37.6668 19.1804 37.7389 21.5043C37.7446 22.4217 37.9555 23.2597 38.3057 23.9223C36.7992 25.6055 36.7992 25.6055 35.1325 27.3469C34.4297 26.5691 33.394 26.1117 32.1825 26.1575C30.9479 26.1942 29.7734 26.7441 28.87 27.6037C25.9229 24.9598 25.9229 24.9598 22.8379 22.2016C24.1203 20.5961 24.8762 18.5822 24.856 16.4346C24.8255 14.3394 24.0469 12.4928 22.7893 11.1126C25.1819 9.26597 25.1819 9.26597 27.3911 7.67116C28.0968 8.19588 28.9915 8.56249 29.9316 8.65496C31.6544 8.86923 32.8223 8.07616 32.8564 6.90451C34.7329 7.47877 34.7329 7.47877 36.4544 8.10629C36.4795 8.19382 36.5047 8.28093 36.5298 8.36721C37.3533 11.6885 40.2427 15.2671 42.4627 15.864C43.97 16.4792 44.1982 14.6424 43.3018 12.0894C42.2316 9.88854 40.3292 7.39125 38.7889 6.16386C36.9623 5.05703 35.853 5.5384 36.3325 7.56671C34.6427 6.93836 34.6427 6.93836 32.7877 6.35336C32.4136 5.08758 30.7621 3.88868 29.0418 3.59102C28.0943 3.45891 27.2931 3.60712 26.7262 3.95391C24.7485 3.01015 24.7485 3.01015 22.8712 2.24391C23.3223 1.90166 23.5608 1.53093 23.532 1.16721C23.4731 0.338634 21.7132 -0.125816 19.6049 0.0298262C17.5732 0.329964 15.5773 1.19074 15.0867 2.03914C14.5824 3.17694 16.154 3.97496 18.7336 3.65955C20.1833 3.55139 21.5213 3.1212 22.4152 2.55643C24.3126 3.34579 24.3126 3.34579 26.3114 4.31473C26.0474 4.63345 25.9023 5.03267 25.9419 5.49175C25.9868 6.06478 26.2842 6.63492 26.7691 7.13405C24.559 8.6979 24.559 8.6979 22.1738 10.5136C20.6306 9.2123 18.5779 8.52574 16.3501 8.69418C13.1295 9.08804 10.3138 11.2712 8.93915 14.1243C7.75356 13.8217 7.75356 13.8217 6.68497 13.5736C6.8032 13.2388 6.89383 12.9073 6.95727 12.5757C7.44749 10.4368 6.60052 9.35721 5.22544 9.98845C4.0897 10.6465 2.84438 12.5159 2.30143 14.3345C1.86888 16.2719 2.33603 17.6987 3.48166 17.4279L3.4866 17.4291C3.39103 20.4375 3.39103 20.4375 3.51956 23.5475C2.90617 23.7651 2.51235 24.6329 2.50576 25.7525C1.79309 25.5481 1.79309 25.5481 1.21059 25.3491C1.07424 23.981 0.688653 22.8997 0.344265 22.8853C0.0661995 22.8465 -0.0656239 23.8588 0.0320078 25.0948C0.187724 26.3259 0.537468 27.4716 0.833247 27.7052C1.17764 27.9439 1.36425 27.214 1.26909 26.0035C1.85158 26.2293 1.85158 26.2293 2.56219 26.4556C2.79989 27.8468 3.58506 29.1101 4.42626 29.336C5.45489 29.5895 6.21411 28.4496 6.04563 26.7417C5.93646 25.0416 4.98033 23.6016 3.96405 23.5012C3.82935 20.3273 3.82935 20.3273 3.91585 17.276C4.83409 16.8421 5.7725 15.7154 6.38178 14.325C7.4446 14.5962 7.4446 14.5962 8.62401 14.9244C8.39497 15.613 8.24502 16.3264 8.17869 17.0741C7.97148 21.6249 11.19 25.485 15.7182 25.6253C18.1899 25.6712 20.4914 24.6485 22.1788 22.9414C25.2655 25.6959 25.2655 25.6959 28.2253 28.3229C27.5942 29.1564 27.1942 30.1691 27.1563 31.2243C27.0513 33.7142 29.0072 35.4333 31.4587 35.1752C33.7343 34.8466 35.7393 32.8134 36.0688 30.5031C36.1747 29.5519 35.9955 28.6742 35.5889 27.9686C37.2264 26.2421 37.2264 26.2421 38.7069 24.561C39.205 25.2195 39.8575 25.5626 40.5471 25.5077C40.9887 25.454 41.392 25.2356 41.7323 24.9004C42.1586 26.1137 42.1586 26.1137 42.4964 27.2771C41.5794 28.559 40.7465 30.397 40.3621 32.1879C39.5214 35.0274 40.22 36.1417 41.6351 35.0865C42.6472 34.0721 43.9387 31.7226 44.6876 29.5346C45.2507 27.133 45.123 25.2851 44.2493 25.5878C43.8303 25.6761 43.3434 26.1079 42.8454 26.7916ZM38.7358 37.7307C37.8834 38.184 36.777 39.2108 36.3312 39.9593C35.8785 40.6219 36.2303 40.7226 37.0274 40.264C37.7813 39.7731 38.7246 38.8995 39.2062 38.2476C39.6907 37.5161 39.5069 37.2609 38.7358 37.7307ZM10.7678 6.25015C10.1898 6.42643 9.58838 6.97304 9.41701 7.4796C9.23864 8.0196 9.56819 8.33996 10.1709 8.17689C10.8024 8.01547 11.4384 7.43212 11.5929 6.87767C11.7425 6.3546 11.3622 6.08377 10.7678 6.25015ZM17.4933 43.6963C16.7991 43.5721 16.3369 43.6567 16.5 43.8904C16.6294 44.0898 17.2621 44.3457 17.9073 44.4655C18.5763 44.5732 19.0451 44.5063 18.9651 44.3115C18.8704 44.0877 18.2092 43.8082 17.4933 43.6963ZM33.4068 38.4648C32.87 38.5862 32.3296 39.0242 32.206 39.4354C32.1005 39.8168 32.4181 40.0274 32.9446 39.8945C33.4542 39.7578 33.9658 39.3487 34.1005 38.9693C34.2356 38.5696 33.93 38.3393 33.4068 38.4648ZM30.0713 15.3657C29.02 15.3203 28.1755 16.151 28.208 17.2401C28.2356 18.3485 29.1353 19.2667 30.2084 19.2882C31.2569 19.3117 32.0614 18.4538 32.0198 17.3779C31.9687 16.3186 31.104 15.4235 30.0713 15.3657ZM17.9864 30.1835C16.8712 30.1381 16.0292 30.9551 16.0935 31.9906C16.1701 32.9971 17.0875 33.8446 18.152 33.9041C19.2498 33.9582 20.1128 33.1878 20.0828 32.1677C20.0601 31.1157 19.1114 30.2166 17.9864 30.1835Z" fill="#005FCF"/>
    <path fill-rule="evenodd" clip-rule="evenodd" d="M75.3396 17.8348H70.1679V30.5757H67.1403V17.8348H62V15.6631H75.3396V17.8348ZM91.2718 24.2278H81.3953V26.7397C81.3953 27.8507 82.2782 28.404 84.0434 28.404H91.8639V30.5757H83.2234C81.733 30.5757 80.5701 30.322 79.7392 29.8197C78.8249 29.251 78.3683 28.4544 78.3683 27.4247V19.0523C78.3683 18.0226 78.7786 17.2157 79.5884 16.6218C80.3987 16.0336 81.5205 15.7393 82.948 15.7393H91.8639V17.9109H84.0126C82.2673 17.9109 81.3953 18.4539 81.3953 19.5449V22.0865H91.2718V24.2278ZM110.558 30.5757H102.51C100.744 30.5757 99.394 30.3116 98.4493 29.779C97.5042 29.251 97.0316 28.3278 97.0316 27.0083V15.6934H100.059V26.486C100.059 27.2517 100.308 27.7797 100.807 28.0793C101.18 28.3078 101.986 28.4189 103.211 28.4189H110.558V30.5757ZM126.486 24.2278H116.609V26.7397C116.609 27.8507 117.492 28.404 119.257 28.404H127.077V30.5757H118.437C116.947 30.5757 115.783 30.322 114.953 29.8197C114.039 29.251 113.582 28.4544 113.582 27.4247V19.0523C113.582 18.0226 113.992 17.2157 114.802 16.6218C115.612 16.0336 116.734 15.7393 118.162 15.7393H127.077V17.9109H119.226C117.482 17.9109 116.609 18.4539 116.609 19.5449V22.0865H126.486V24.2278ZM153.057 30.6518H150.17V18.951L144.827 29.373C144.313 30.393 143.586 30.9004 142.652 30.9004C142.096 30.9004 141.639 30.7532 141.286 30.4588C141.073 30.2561 140.845 29.9262 140.601 29.4589L135.138 18.951V30.6518H132.245V17.703C132.245 17.1395 132.474 16.6676 132.931 16.2971C133.388 15.9265 134.021 15.7393 134.836 15.7393C136.062 15.7393 136.903 16.2009 137.36 17.1246L142.625 27.6629L147.979 17.1092C148.457 16.1757 149.287 15.7089 150.472 15.7089C151.302 15.7089 151.941 15.9013 152.388 16.2822C152.834 16.6624 153.057 17.1498 153.057 17.7483V30.6518ZM160.588 30.5757H157.561V15.6637H160.588V30.5757ZM178.634 17.8651H170.663C169.791 17.8651 169.168 17.982 168.789 18.2053C168.332 18.5146 168.103 18.9407 168.103 19.4836V26.5164C168.103 27.2213 168.311 27.7087 168.716 27.9876C169.121 28.2671 169.822 28.404 170.814 28.404H178.603V30.5757H169.687C168.218 30.5757 167.08 30.2813 166.281 29.6926C165.481 29.0992 165.076 28.282 165.076 27.2317V19.0122C165.076 17.7786 165.502 16.9058 166.359 16.3784C167.086 15.9219 168.28 15.6934 169.931 15.6934H178.634V17.8651ZM196.186 24.2278H186.31V26.7397C186.31 27.8507 187.193 28.404 188.958 28.404H196.778V30.5757H188.138C186.648 30.5757 185.484 30.322 184.654 29.8197C183.74 29.251 183.283 28.4544 183.283 27.4247V19.0523C183.283 18.0226 183.693 17.2157 184.503 16.6218C185.313 16.0336 186.435 15.7393 187.863 15.7393H196.778V17.9109H188.927C187.182 17.9109 186.31 18.4539 186.31 19.5449V22.0865H196.186V24.2278Z" fill="#191919"/>
</svg>
