<svg width="23" height="23" viewBox="0 0 23 23" fill="none" xmlns="http://www.w3.org/2000/svg">
<path fill-rule="evenodd" clip-rule="evenodd" d="M9.58042 2.81289L22.1066 11.4999L9.58042 20.1869L9.58042 2.81289Z" fill="#005FCF"/>
</svg>
